{
  "name": "app-gateway-e2e",
  "$schema": "../../node_modules/nx/schemas/project-schema.json",
  "implicitDependencies": ["app-gateway"],
  "targets": {
    "e2e": {
      "executor": "@nrwl/jest:jest",
      "outputs": ["{workspaceRoot}/coverage/{e2eProjectRoot}"],
      "options": {
        "jestConfig": "packages/app-gateway-e2e/jest.config.ts",
        "passWithNoTests": true
      }
    },
    "lint": {
      "executor": "@nrwl/linter:eslint",
      "outputs": ["{options.outputFile}"],
      "options": {
        "lintFilePatterns": ["packages/app-gateway-e2e/**/*.{js,ts}"]
      }
    }
  }
}
