{
  "name": "app-gateway",
  "$schema": "../../node_modules/nx/schemas/project-schema.json",
  "sourceRoot": "packages/app-gateway/src",
  "projectType": "application",
  "targets": {
    "deploy": {
      "executor": "nx:run-commands",
      "options": {
        "commands": [
          "nx build app-gateway",
          "docker build -f ./packages/app-gateway/Dockerfile . -t app-gateway"
        ],
        "parallel": false
      }
    },
    "build": {
      "executor": "@nrwl/webpack:webpack",
      "outputs": ["{options.outputPath}"],
      "defaultConfiguration": "production",
      "options": {
        "target": "node",
        "compiler": "tsc",
        "outputPath": "dist/packages/app-gateway",
        "main": "packages/app-gateway/src/main.ts",
        "tsConfig": "packages/app-gateway/tsconfig.app.json",
        "assets": ["packages/app-gateway/src/assets"],
        "isolatedConfig": true,
        "webpackConfig": "packages/app-gateway/webpack.config.js",
        "generatePackageJson": true
      },
      "configurations": {
        "development": {},
        "production": {}
      }
    },
    "serve": {
      "executor": "@nrwl/js:node",
      "defaultConfiguration": "development",
      "options": {
        "buildTarget": "app-gateway:build"
      },
      "configurations": {
        "development": {
          "buildTarget": "app-gateway:build:development"
        },
        "production": {
          "buildTarget": "app-gateway:build:production"
        }
      }
    },
    "lint": {
      "executor": "@nrwl/linter:eslint",
      "outputs": ["{options.outputFile}"],
      "options": {
        "lintFilePatterns": ["packages/app-gateway/**/*.ts"]
      }
    },
    "test": {
      "executor": "@nrwl/jest:jest",
      "outputs": ["{workspaceRoot}/coverage/{projectRoot}"],
      "options": {
        "jestConfig": "packages/app-gateway/jest.config.ts",
        "passWithNoTests": true
      },
      "configurations": {
        "ci": {
          "ci": true,
          "codeCoverage": true
        }
      }
    }
  },
  "tags": []
}
